{
    "KPlugin": {
        "Description": "View generated asm for C/C++ code",
        "Description[az]": "C/C++ kodu üçün yaradılmış asm göstərmək",
        "Description[ca@valencia]": "Visualitza el codi ASM generat per a C/C++",
        "Description[ca]": "Visualitza el codi ASM generat per a C/C++",
        "Description[cs]": "Zobrazit vygenerovaná kód asm pro kód C/C++",
        "Description[el]": "Προβολή παραχθέντος asm για C/C++ κώδικα",
        "Description[en_GB]": "View generated asm for C/C++ code",
        "Description[es]": "Ver ensamblador generado para el código C/C++",
        "Description[fi]": "Näytä C/C++-koodille luotu assembler",
        "Description[fr]": "Afficher le code assembleur pour le code C / C++",
        "Description[ia]": "Vista generava asm per codice C/C++",
        "Description[ko]": "C/C++ 코드에서 생성된 어셈블리 표시",
        "Description[nl]": "Gegenereerde asm voor C/C++ code",
        "Description[pl]": "Zobacz wytworzony asm dla kodu C/C++",
        "Description[pt]": "Ver o ASM gerado do código em C/C++",
        "Description[sl]": "Pogled generirane asm za kodo C/C++",
        "Description[sv]": "Vy av genererade assembler för C/C++ kod",
        "Description[uk]": "Перегляд створеного коду асемблера для коду C/C++",
        "Description[vi]": "Xem hợp ngữ được sinh cho mã C/C++",
        "Description[x-test]": "xxView generated asm for C/C++ codexx",
        "Description[zh_CN]": "查看 C/C++ 代码生成的 asm",
        "Name": "Compiler Explorer",
        "Name[az]": "Kompliyator bələdçisi",
        "Name[ca@valencia]": "Explorador de compiladors",
        "Name[ca]": "Explorador de compiladors",
        "Name[el]": "Εξερευνητής μεταγλωττιστή",
        "Name[en_GB]": "Compiler Explorer",
        "Name[es]": "Explorador del compilador",
        "Name[fi]": "Kääntäjäselain",
        "Name[fr]": "Explorateur de compilateur",
        "Name[ia]": "Explrator de compilator (Compiler Explorer)",
        "Name[ko]": "컴파일러 탐색기",
        "Name[nl]": "Explorer van compiler",
        "Name[pl]": "Przeglądarka kompilatora",
        "Name[pt]": "Explorador de Compiladores",
        "Name[sl]": "Raziskovalec prevajalnika",
        "Name[sv]": "Kompilatorutforskare",
        "Name[uk]": "Засіб аналізу компілятора",
        "Name[vi]": "Trình khảo sát trình biên dịch",
        "Name[x-test]": "xxCompiler Explorerxx",
        "Name[zh_CN]": "编译器浏览器",
        "ServiceTypes": [
            "KTextEditor/Plugin"
        ]
    }
}
